Discrete Probability Distributions
…
  count(Upsilon, name = "simulated") %>%
  mutate(simulated = simulated / 
                     sum(simulated),
         exact = joint_Pr_frame[Upsilon + 1, 
                                "7", "2"] / 
                 marginal_Pr_frame["7", "2"]) %>%
  print(n = 22)

## # A tibble: 26 x 3
##    Upsilon simulated    exact
##      <int>     <dbl>    <dbl>
##  1       0  0.000182 0.000178
##  2       1  0.00180  0.00170 
##  3       2  0.00739  0.00747 
##  4       3  0.0209   0.0214  
##  5       4  0.0452   0.0453  
##  6       5  0.0767   0.0768  
##  7       6  0.109    0.108   
##  8       7  0.131    0.131   
##  9       8  0.139    0.138   
## 10       9  0.129    0.129   
## 11      10  0.109    0.109   
## 12      11  0.0834   0.0841  
## 13      12  0.0596   0.0593  
## 14      13  0.0388   0.0386  
## 15      14  0.0230   0.0233  
## 16      15  0.0134   0.0132  
## 17      16  0.00674  0.00697 
## 18      17  0.00362  0.00347 
## 19      18  0.00155  0.00163 
## 20      19  0.000753 0.000729
## 21      20  0.000332 0.000309
## 22      21  0.000131 0.000125
## # ... with 4 more rows
…
